<svg xmlns="http://www.w3.org/2000/svg" viewBox="0 0 198 52.944">
  <g id="Grupo_1794" data-name="Grupo 1794" transform="translate(-50 -10)">
    <text id="Albert_CS" data-name="Albert CS" transform="translate(116 37)" fill="#004393" font-size="28" font-family="Montserrat-Regular, Montserrat"><tspan x="0" y="0">Albert CS</tspan></text>
    <text id="Cloud_admin" data-name="Cloud admin" transform="translate(135 58)" fill="#00a5ce" font-size="17" font-family="Montserrat-Regular, Montserrat"><tspan x="0" y="0">Cloud admin</tspan></text>
    <g id="Grupo_1792" data-name="Grupo 1792" transform="translate(50 13.157)">
      <g id="Grupo_1793" data-name="Grupo 1793" transform="translate(0 0)">
        <path id="Exclusión_1" data-name="Exclusión 1" d="M27.5,49.787c-.14,0-.283-.007-.425-.021a9.183,9.183,0,0,1-2.912-.7l-1.672-1.087-1.082-.395c-.014-.008-1.393-.807-2.815-1.809-2.059-1.451-5.035-3.545-5.035-3.545l-3.463,2.3V37.173L4.75,41.679,2.74,37.173l4.142-4.631L0,30.328l11.874-8.117L2.74,21.127,5.2,13.265l8.36,4.753.988-.794L6.387,10.918,10.093,5.95l9.452,7.314,1.192-.672L11.874,4.756,16.862,0l7.731,8.086V0h5.575V6.412h1.194L34.8,1.781,36.1,3.1,38.36,4.756,37.042,6.412,34.8,10.918v1.674l3.563-1.674,3.793-4.506,1.43,1.674,2.257,2.832,1.3,1.674,1.193,2.369,1.781,2.262-1.781,1.425-2.494,1.3-2.257,2.262h7.956l2.013,1.3v4.506H45.841l3.438,1.8,3.1,2.725,3,1.657-3.839,2.974-2.262,2.244-3.438-2.244-2.257-1.425v8.781l-2.8-2.3,0,0a32.477,32.477,0,0,1-4.655,3.541A50.3,50.3,0,0,1,30.167,48.8,4.14,4.14,0,0,1,27.5,49.787ZM14.974,29.85h0a1.379,1.379,0,0,0-.838.2,1.631,1.631,0,0,0-.687,2c.321,1.025,1.971,2.139,1.987,2.15v2.369l-.8,1.756v1.994L15.825,42.1l1.735,1.516a8.928,8.928,0,0,0,2.594,1.67c1.431.557,2.75.912,2.763.916l1.069,1.051,3.085,1.425c.017-.007,1.814-.753,4-1.958a23.467,23.467,0,0,0,6.217-4.62,9.333,9.333,0,0,0,2.153-5.309A9.159,9.159,0,0,0,39.3,34.2l1.55-1.532a5.636,5.636,0,0,0,0-2.618A1.892,1.892,0,0,0,39.3,29.1H37.291l-1.068-9.636-2.95-2.957-3.584-.865-3.172.865h-3.6L18.18,19.468l-1.781,5v5.575a6.585,6.585,0,0,0-1.424-.2Z" transform="translate(0 0)" fill="#004393"/>
        <path id="Trazado_421" data-name="Trazado 421" d="M1444.952,427.752a15.208,15.208,0,0,0-3.084.837,14.494,14.494,0,0,0-2.74,1.55v1.051s1.285-.71,2.74-1.361,3.084-1.24,3.084-1.24Z" transform="translate(-1419.647 -404.597)" fill="#004393"/>
        <path id="Trazado_422" data-name="Trazado 422" d="M1453.361,427.752a17.738,17.738,0,0,1,4.306,1.069,3.963,3.963,0,0,1,2.03,1.906v1.3a10.206,10.206,0,0,0-2.774-2.2,11.754,11.754,0,0,0-3.562-1Z" transform="translate(-1425.487 -404.597)" fill="#004393"/>
        <path id="Trazado_424" data-name="Trazado 424" d="M1458.175,439.228c-.414,0-.977.99-.75,1.32s1.469.33,1.656,0S1458.589,439.228,1458.175,439.228Z" transform="translate(-1427.132 -409.305)" fill="#004393"/>
        <path id="Trazado_425" data-name="Trazado 425" d="M1445.673,450.6l-4.1-2.7-3.679,4.87,15.458.388L1449.9,447.9Z" transform="translate(-1418.551 -412.861)" fill="#004393"/>
        <path id="Trazado_426" data-name="Trazado 426" d="M1458.175,439.228c-.414,0-.977.99-.75,1.32s1.469.33,1.656,0S1458.589,439.228,1458.175,439.228Z" transform="translate(-1435.389 -409.305)" fill="#004393"/>
      </g>
    </g>
  </g>
</svg>
