<svg class="inline" xmlns="http://www.w3.org/2000/svg" width="65" height="65" viewBox="0 0 66 66">
  <path
    id="Trazado_5961"
    data-name="Trazado 5961"
    d="M129.5,431.056V417.5m0-13.555h.034M160,417.5A30.5,30.5,0,1,0,129.5,448,30.5,30.5,0,0,0,160,417.5Z" transform="translate(-96.5 -384.5)"
    fill="none"
    stroke="currentColor"
    stroke-linecap="round"
    stroke-linejoin="round"
    stroke-width="5"/>
</svg>
