<svg xmlns="http://www.w3.org/2000/svg" width="20" height="20" viewBox="0 0 20 20">
  <defs>
    <style>
      .cls-1 {
        fill: none;
        stroke: #fff;
        stroke-linecap: round;
        stroke-linejoin: round;
        stroke-width: 2px;
      }
    </style>
  </defs>
  <path id="Trazado_585" data-name="Trazado 585" class="cls-1" d="M57,396l2,2,4-4m6,2a9,9,0,1,1-9-9A9,9,0,0,1,69,396Z" transform="translate(-50 -386)"/>
</svg>
