<svg class="mt-1.5 float-right" xmlns="http://www.w3.org/2000/svg" width="8.414" height="14.828" viewBox="0 0 8.414 14.828">
  <path id="Trazado_789" data-name="Trazado 789" d="M257,489l-6,6-6-6" transform="translate(-487.586 258.414) rotate(-90)" fill="none" stroke="#004393" stroke-linecap="round" stroke-linejoin="round" stroke-width="2"/>
</svg>
