<svg xmlns="http://www.w3.org/2000/svg" viewBox="0 0 200.233 47.999">
  <g id="Grupo_1216" data-name="Grupo 1216" transform="translate(-43 -56)">
    <g id="logoBackOff" transform="translate(37.224 51.18)">
      <g id="Grupo_1114" data-name="Grupo 1114" transform="translate(51.015 12.968)">
        <path id="Trazado_332" data-name="Trazado 332" d="M36.2,32.658,36.349,10.8h6.245a6.007,6.007,0,0,1,4.461,1.487,4.524,4.524,0,0,1,1.636,3.569,5.068,5.068,0,0,1-1.041,3.271,6.412,6.412,0,0,1-2.825,1.933h0A5.724,5.724,0,0,1,48.393,22.7a5.183,5.183,0,0,1,1.338,3.717,5.372,5.372,0,0,1-2.082,4.461,7.157,7.157,0,0,1-5.056,1.636Zm2.676-10.111v7.881H42.3a5.371,5.371,0,0,0,3.569-1.041,3.448,3.448,0,0,0,1.19-2.974c0-2.528-1.784-3.866-5.2-3.866Zm0-9.368v6.989h2.676a4.563,4.563,0,0,0,3.271-1.041,3.579,3.579,0,0,0,1.19-2.825c0-2.082-1.338-3.123-4.163-3.271Z" transform="translate(-36.2 -10.057)" fill="#070707"/>
        <path id="Trazado_333" data-name="Trazado 333" d="M60.493,30.862H57.965V28.482h0a5.329,5.329,0,0,1-4.758,2.825,5.151,5.151,0,0,1-3.569-1.19A4.372,4.372,0,0,1,48.3,26.847c0-2.974,1.784-4.61,5.2-5.056l4.61-.595q0-4.015-3.123-4.015a7.193,7.193,0,0,0-5.056,1.933V16.587A10.27,10.27,0,0,1,55.289,15.1c3.717,0,5.5,1.933,5.5,5.8Zm-2.379-7.881-3.717.446a5.645,5.645,0,0,0-2.676.892c-.595.3-.892,1.041-.892,2.082a3.132,3.132,0,0,0,.743,1.933,3.346,3.346,0,0,0,2.23.743,4.28,4.28,0,0,0,3.123-1.338,4.9,4.9,0,0,0,1.19-3.271Z" transform="translate(-30.308 -7.963)" fill="#070707"/>
        <path id="Trazado_334" data-name="Trazado 334" d="M71.7,30.267a8.068,8.068,0,0,1-4.312,1.041,6.849,6.849,0,0,1-5.353-2.23,7.315,7.315,0,0,1-1.933-5.65,8.316,8.316,0,0,1,2.23-6.1,7.962,7.962,0,0,1,5.948-2.23,8.984,8.984,0,0,1,3.569.743v2.528a5.838,5.838,0,0,0-3.717-1.19,5.155,5.155,0,0,0-3.866,1.636,7.4,7.4,0,0,0-1.636,4.461,6.5,6.5,0,0,0,1.338,4.312,4.929,4.929,0,0,0,3.866,1.636A6.419,6.419,0,0,0,71.7,27.888Z" transform="translate(-24.568 -7.963)" fill="#070707"/>
        <path id="Trazado_335" data-name="Trazado 335" d="M84.288,33.5h-3.42l-6.84-7.583h0v7.435H71.5L71.649,10.3h2.528l-.149,14.572h0l6.543-7.137h3.271l-7.286,7.435Z" transform="translate(-19.011 -10.3)" fill="#070707"/>
      </g>
      <g id="Grupo_1115" data-name="Grupo 1115" transform="translate(119.414 13.117)">
        <path id="Trazado_336" data-name="Trazado 336" d="M92.311,33.6a9.548,9.548,0,0,1-7.435-3.123A11.9,11.9,0,0,1,82.2,22.449a11.623,11.623,0,0,1,2.974-8.327A9.974,9.974,0,0,1,92.906,11a9.449,9.449,0,0,1,7.286,3.123,11.9,11.9,0,0,1,2.676,8.029,12.648,12.648,0,0,1-2.825,8.476A10.906,10.906,0,0,1,92.311,33.6Zm.3-20.222a7.313,7.313,0,0,0-5.65,2.379,9.437,9.437,0,0,0-2.23,6.543,9.365,9.365,0,0,0,2.082,6.543,6.839,6.839,0,0,0,5.353,2.528,7.282,7.282,0,0,0,5.65-2.23A9.584,9.584,0,0,0,99.895,22.6c0-2.825-.595-5.056-1.933-6.691C96.921,14.123,94.988,13.379,92.609,13.379Z" transform="translate(-82.2 -10.108)" fill="#0070c0"/>
        <path id="Trazado_337" data-name="Trazado 337" d="M108.116,12.928a3,3,0,0,0-1.636-.446c-1.784,0-2.676,1.041-2.676,3.271v2.379h3.717v2.082H103.8L103.656,33.6h-2.528l.149-13.382H98.6V18.132h2.676V15.6a4.851,4.851,0,0,1,5.056-5.2,5.546,5.546,0,0,1,1.784.3Z" transform="translate(-74.214 -10.4)" fill="#0070c0"/>
        <path id="Trazado_338" data-name="Trazado 338" d="M115.716,12.928a3,3,0,0,0-1.636-.446c-1.784,0-2.676,1.041-2.676,3.271v2.379h3.717v2.082H111.4L111.256,33.6h-2.528l.149-13.382H106.2V18.132h2.676V15.6a4.851,4.851,0,0,1,5.056-5.2,5.546,5.546,0,0,1,1.784.3Z" transform="translate(-70.514 -10.4)" fill="#0070c0"/>
        <path id="Trazado_339" data-name="Trazado 339" d="M116.436,14.071a1.535,1.535,0,1,1,1.19-.446A1.977,1.977,0,0,1,116.436,14.071ZM117.476,33.7h-2.528l.149-15.613h2.528Z" transform="translate(-66.326 -10.205)" fill="#0070c0"/>
        <path id="Trazado_340" data-name="Trazado 340" d="M131.9,30.767a8.068,8.068,0,0,1-4.312,1.041,6.849,6.849,0,0,1-5.353-2.23,7.315,7.315,0,0,1-1.933-5.65,8.316,8.316,0,0,1,2.23-6.1,7.962,7.962,0,0,1,5.948-2.23,8.984,8.984,0,0,1,3.569.743v2.528a5.838,5.838,0,0,0-3.717-1.19,5.155,5.155,0,0,0-3.866,1.636,7.4,7.4,0,0,0-1.636,4.461,6.5,6.5,0,0,0,1.338,4.312,4.929,4.929,0,0,0,3.866,1.636,6.419,6.419,0,0,0,3.866-1.338Z" transform="translate(-63.654 -7.868)" fill="#0070c0"/>
        <path id="Trazado_341" data-name="Trazado 341" d="M144.631,24.373l-11-.149a5.453,5.453,0,0,0,1.338,4.015,5.025,5.025,0,0,0,3.717,1.487,8.448,8.448,0,0,0,4.907-1.636v2.379a8.647,8.647,0,0,1-5.5,1.487,6.536,6.536,0,0,1-5.2-2.23,9.152,9.152,0,0,1-1.784-5.948,8.771,8.771,0,0,1,2.082-5.948,6.659,6.659,0,0,1,5.056-2.23A5.966,5.966,0,0,1,143,17.682a8.66,8.66,0,0,1,1.636,5.5ZM142.1,22.291a4.958,4.958,0,0,0-1.041-3.42,3.807,3.807,0,0,0-2.825-1.19,4.152,4.152,0,0,0-2.974,1.19,5.593,5.593,0,0,0-1.487,3.271Z" transform="translate(-58.389 -7.868)" fill="#0070c0"/>
      </g>
      <g id="Grupo_1116" data-name="Grupo 1116" transform="translate(96.299 44.789)">
        <path id="Trazado_342" data-name="Trazado 342" d="M68,39.532V31.8h2.082a4.184,4.184,0,0,1,2.974.892A3.5,3.5,0,0,1,74.1,35.517a5.346,5.346,0,0,1-.3,1.636,3.238,3.238,0,0,1-.743,1.19,2.875,2.875,0,0,1-1.338.743,5.346,5.346,0,0,1-1.636.3H68Zm.743-6.989v6.394h1.19a4.584,4.584,0,0,0,1.487-.149,2.278,2.278,0,0,0,1.636-1.636,4.342,4.342,0,0,0,.3-1.338c0-2.082-1.041-3.123-3.271-3.123H68.743Z" transform="translate(-68 -31.651)"/>
        <path id="Trazado_343" data-name="Trazado 343" d="M77.443,39.532H76.7V31.8h.743Z" transform="translate(-63.764 -31.651)"/>
        <path id="Trazado_344" data-name="Trazado 344" d="M88.1,39.135a4.887,4.887,0,0,1-2.528.595,4.4,4.4,0,0,1-1.487-.3A3.119,3.119,0,0,1,82.149,37.5,5.575,5.575,0,0,1,82,35.863a2.2,2.2,0,0,1,.149-1.041c.149-.3.149-.743.3-1.041a3.11,3.11,0,0,1,.595-.892,2.611,2.611,0,0,1,.743-.595l.892-.446a2.9,2.9,0,0,1,1.19-.149,4.749,4.749,0,0,1,2.082.446v.743a4.84,4.84,0,0,0-2.082-.595,4.341,4.341,0,0,0-1.338.3,2.667,2.667,0,0,0-1.041.743,2.4,2.4,0,0,0-.595,1.041c-.149.446-.149.892-.3,1.338a4.117,4.117,0,0,0,.149,1.338,2.4,2.4,0,0,0,.595,1.041,3.942,3.942,0,0,0,.892.743,3.194,3.194,0,0,0,2.974-.149V36.31H85.42v-.595h2.528v3.42Z" transform="translate(-61.183 -31.7)"/>
        <path id="Trazado_345" data-name="Trazado 345" d="M91.595,39.532H91V31.8h.743v7.732Z" transform="translate(-56.8 -31.651)"/>
        <path id="Trazado_346" data-name="Trazado 346" d="M98.974,32.495v6.989H98.23V32.495H96V31.9h5.2v.595Z" transform="translate(-54.366 -31.603)"/>
        <path id="Trazado_347" data-name="Trazado 347" d="M108.7,39.532l-.892-2.23h-3.271l-.892,2.23H102.9l2.974-7.732h.743l2.974,7.732Zm-2.379-6.394a.461.461,0,0,0-.149-.3c-.149-.149,0-.149,0-.3h0v.3c0,.149,0,.149-.149.3l-1.19,3.42h2.825Z" transform="translate(-51.006 -31.651)"/>
        <path id="Trazado_348" data-name="Trazado 348" d="M111.8,39.532V31.8h.743v6.989h3.123v.743Z" transform="translate(-46.672 -31.651)"/>
      </g>
      <path id="Trazado_321" d="M35.9,35.8H69.059" transform="translate(14.669 15.085)" fill="none" stroke="#000" stroke-width="0.246"/>
      <path id="Trazado_322" d="M123.5,35.8h30.185" transform="translate(52.324 15.085)" fill="none" stroke="#000" stroke-width="0.246"/>
      <g id="Grupo_1117" data-name="Grupo 1117" transform="translate(5.776 4.82)">
        <rect id="Rectángulo_1551" data-name="Rectángulo 1551" width="5.502" height="5.502" transform="translate(19.124 0) rotate(45)" fill="#1075bb"/>
        <rect id="Rectángulo_1552" data-name="Rectángulo 1552" width="5.502" height="5.502" transform="translate(22.989 3.866) rotate(45)" fill="#178acb"/>
        <rect id="Rectángulo_1553" data-name="Rectángulo 1553" width="5.502" height="5.502" transform="translate(26.852 7.733) rotate(45)" fill="#1e9ad6"/>
        <rect id="Rectángulo_1554" data-name="Rectángulo 1554" width="5.502" height="5.502" transform="translate(30.715 11.599) rotate(45)" fill="#1889cb"/>
        <rect id="Rectángulo_1555" data-name="Rectángulo 1555" width="5.502" height="5.502" transform="translate(34.578 15.466) rotate(45)" fill="#1176be"/>
        <rect id="Rectángulo_1556" data-name="Rectángulo 1556" width="5.502" height="5.502" transform="translate(30.71 19.332) rotate(45)" fill="#2d408d"/>
        <rect id="Rectángulo_1557" data-name="Rectángulo 1557" width="5.502" height="5.502" transform="translate(26.846 23.199) rotate(45)" fill="#2a52a0"/>
        <rect id="Rectángulo_1558" data-name="Rectángulo 1558" width="5.502" height="5.502" transform="translate(22.978 27.065) rotate(45)" fill="#0b5fa7"/>
        <rect id="Rectángulo_1559" data-name="Rectángulo 1559" width="5.502" height="5.502" transform="translate(19.112 30.931) rotate(45)" fill="#178acb"/>
        <rect id="Rectángulo_1560" data-name="Rectángulo 1560" width="5.502" height="5.502" transform="translate(18.239 11.623) rotate(45)" fill="#075da8"/>
        <rect id="Rectángulo_1561" data-name="Rectángulo 1561" width="5.502" height="5.502" transform="translate(22.103 15.489) rotate(45)" fill="#2e3f8d"/>
        <rect id="Rectángulo_1562" data-name="Rectángulo 1562" width="5.502" height="5.502" transform="translate(18.237 19.354) rotate(45)" fill="#244798"/>
        <rect id="Rectángulo_1563" data-name="Rectángulo 1563" width="4.907" height="4.907" transform="translate(12.779 16.632) rotate(45)" fill="#1176bc"/>
        <rect id="Rectángulo_1564" data-name="Rectángulo 1564" width="3.866" height="3.866" transform="translate(8.06 12.99) rotate(45)" fill="#1588cb"/>
        <rect id="Rectángulo_1565" data-name="Rectángulo 1565" width="2.974" height="2.974" transform="translate(5.1 19.871) rotate(45)" fill="#198ac4"/>
        <rect id="Rectángulo_1566" data-name="Rectángulo 1566" width="2.379" height="2.379" transform="translate(1.682 15.78) rotate(45)" fill="#2498d1"/>
      </g>
    </g>
  </g>
</svg>
