<svg xmlns="http://www.w3.org/2000/svg" width="19" height="19" viewBox="0 0 19 19">
  <defs>
    <style>
      .cls-1 {
        fill: none;
        stroke: #fff;
        stroke-linecap: round;
        stroke-linejoin: round;
        stroke-width: 2px;
      }
    </style>
  </defs>
  <path id="Trazado_642" data-name="Trazado 642" class="cls-1" d="M299,53h-5a2,2,0,0,0-2,2V66a2,2,0,0,0,2,2h11a2,2,0,0,0,2-2V61m-1.414-9.414a2,2,0,0,1,2.828,2.828L299.828,63H297V60.172Z" transform="translate(-291 -50)"/>
</svg>
