<svg xmlns="http://www.w3.org/2000/svg" width="20" height="20" viewBox="0 0 20 20">
  <defs>
    <style>
      .cls-1 {
        fill: none;
        stroke: #fff;
        stroke-linecap: round;
        stroke-linejoin: round;
        stroke-width: 2px;
      }
    </style>
  </defs>
  <path id="Trazado_572" data-name="Trazado 572" class="cls-1" d="M10,398l2-2m0,0,2-2m-2,2-2-2m2,2,2,2m7-2a9,9,0,1,1-9-9A9,9,0,0,1,21,396Z" transform="translate(-2 -386)"/>
</svg>
