<svg xmlns="http://www.w3.org/2000/svg" width="12.847" height="12.656" viewBox="0 0 12.847 12.656">
  <g id="Grupo_4474" data-name="Grupo 4474" transform="translate(-488.653 -1376.884)">
    <g id="Rectángulo_2365" data-name="Rectángulo 2365" transform="translate(488.653 1377.126)" fill="none" stroke="currentColor" stroke-width="1.3">
      <rect width="4.5" height="4.5" rx="1" stroke="none"/>
      <rect x="0.65" y="0.65" width="3.2" height="3.2" rx="0.35" fill="none"/>
    </g>
    <g id="Rectángulo_2366" data-name="Rectángulo 2366" transform="translate(497 1384.612)" fill="none" stroke="currentColor" stroke-width="1.3">
      <rect width="4.5" height="4.5" rx="1" stroke="none"/>
      <rect x="0.65" y="0.65" width="3.2" height="3.2" rx="0.35" fill="none"/>
    </g>
    <path id="Trazado_1230" data-name="Trazado 1230" d="M149.034,344.223,147,342.612m0,0L149.034,341M147,342.612h5.3v2.718" transform="translate(347.821 1036.797)" fill="none" stroke="currentColor" stroke-linecap="round" stroke-linejoin="round" stroke-width="1.3"/>
    <path id="Trazado_1231" data-name="Trazado 1231" d="M149.034,344.2,147,342.6m0,0,2.034-1.6M147,342.6h5.3v2.7" transform="matrix(-1, -0.017, 0.017, -1, 635.751, 1732.125)" fill="none" stroke="currentColor" stroke-linecap="round" stroke-linejoin="round" stroke-width="1.3"/>
  </g>
</svg>
