<svg xmlns="http://www.w3.org/2000/svg" width="16.056" height="13.201" viewBox="0 0 16.056 13.201">
  <path id="Trazado_584" data-name="Trazado 584" d="M59.706,341l5.54,5.54m0,0-5.54,5.54m5.54-5.54H51" transform="translate(-50.25 -339.939)" fill="none" stroke="#005fdd" stroke-linecap="round" stroke-linejoin="round" stroke-width="1.5"/>
</svg>
