<svg xmlns="http://www.w3.org/2000/svg" width="18.35" height="14.786" viewBox="0 0 18.35 14.786">
  <g id="Grupo_4451" data-name="Grupo 4451" transform="translate(-79.435 -1382)">
    <path id="Trazado_1197" data-name="Trazado 1197" d="M1325.894,1388.527h11.926" transform="translate(-1241.035 -5.527)" fill="none" stroke="currentColor" stroke-linecap="round" stroke-width="2"/>
    <path id="Trazado_1225" data-name="Trazado 1225" d="M1325.917,1388.527h-.023" transform="translate(-1245.459 -5.527)" fill="none" stroke="currentColor" stroke-linecap="round" stroke-width="2"/>
    <path id="Trazado_1226" data-name="Trazado 1226" d="M1325.894,1388.527h11.926" transform="translate(-1241.035 0.866)" fill="none" stroke="currentColor" stroke-linecap="round" stroke-width="2"/>
    <path id="Trazado_1227" data-name="Trazado 1227" d="M1325.917,1388.527h-.023" transform="translate(-1245.459 0.866)" fill="none" stroke="currentColor" stroke-linecap="round" stroke-width="2"/>
    <path id="Trazado_1228" data-name="Trazado 1228" d="M1325.894,1388.527h11.926" transform="translate(-1241.035 7.259)" fill="none" stroke="currentColor" stroke-linecap="round" stroke-width="2"/>
    <path id="Trazado_1229" data-name="Trazado 1229" d="M1325.917,1388.527h-.023" transform="translate(-1245.459 7.259)" fill="none" stroke="currentColor" stroke-linecap="round" stroke-width="2"/>
  </g>
</svg>
